<?xml version="1.0" encoding="UTF-8"?>
<svg width="28px" height="28px" viewBox="0 0 28 28" version="1.1" xmlns="http://www.w3.org/2000/svg" xmlns:xlink="http://www.w3.org/1999/xlink">
    <!-- Generator: Sketch 63.1 (92452) - https://sketch.com -->
    <title>user</title>
    <desc>Created with Sketch.</desc>
    <g id="Page-1" stroke="none" stroke-width="1" fill="none" fill-rule="evenodd">
        <g id="Desktop-HD" transform="translate(-1308.000000, -394.000000)">
            <g id="user" transform="translate(1308.000000, 394.000000)">
                <g id="Container-/-Radius-(999px)" fill="#F3F3F3">
                    <rect x="0.777777778" y="0.777777778" width="26.4444444" height="26.4444444" rx="13.2222222"></rect>
                </g>
                <g id="man" transform="translate(2.000000, 2.000000)" fill-rule="nonzero">
                    <path d="M8.21841015,18.1349325 C6.67445731,19.0512793 5.51352757,20.5606925 5.03748126,22.3555809 C6.92831767,23.4782486 9.11831674,24.1373321 11.4568739,24.1779253 L11.6864087,24.17991 L14.4407796,21.2648112 L11.4568739,18.1349325 L8.21841015,18.1349325 L8.21841015,18.1349325 Z" id="Path" fill="#C98A2E"></path>
                    <path d="M14.9216083,18.1349325 L11.4182909,18.1349325 L11.4182909,24.17991 C13.8676812,24.17991 16.1624429,23.5149195 18.1349325,22.3555809 C17.6540381,20.5606925 16.4812851,19.0512793 14.9216083,18.1349325 Z" id="Path" fill="#AD712C"></path>
                    <path d="M14.5694387,18.044045 L13.655002,17.1274363 L11.5331055,17.1274363 L9.73913043,20.0278128 L11.5331055,23.5082459 L13.8621868,21.1736795 C14.1384175,20.8967927 14.1384175,20.4479154 13.8621868,20.1710285 L13.655002,19.9633517 L14.5694387,19.046743 C14.8456694,18.7698091 14.8456694,18.3208848 14.5694387,18.044045 Z" id="Path" fill="#915729"></path>
                    <path d="M9.5571149,17.1274363 L8.6103087,18.0440517 C8.3242999,18.3209406 8.3242999,18.7698212 8.6103087,19.0467101 L9.5571149,19.9633255 L9.34259615,20.1710039 C9.05658734,20.4478928 9.05658734,20.8967734 9.34259615,21.1736623 L11.7541229,23.5082459 L11.7541229,17.1274363 L9.5571149,17.1274363 Z" id="Path" fill="#AD712C"></path>
                    <path d="M6.95380705,19.1424288 C6.04724463,20.0116839 5.37386438,21.1226246 5.03748126,22.3721374 C5.55244688,22.6733462 6.08937517,22.940893 6.64514885,23.1724138 L8.05997001,20.5068747 C7.74913917,20.0062469 7.37686007,19.5480749 6.95380705,19.1424288 Z" id="Path" fill="#AB5034"></path>
                    <path d="M16.627514,19.5687454 C16.4972001,19.4209506 16.3607932,19.2787347 16.218624,19.1424288 C15.7955644,19.5480371 15.4232795,20.0063144 15.1124438,20.5068121 L16.5273343,23.1724138 C16.5607747,23.1584664 16.5942152,23.1445191 16.627514,23.130288 C17.1475887,22.9085958 17.6509905,22.6551793 18.1349325,22.3721187 C17.8513499,21.3186434 17.3280633,20.3635561 16.627514,19.5687454 Z" id="Path" fill="#8D472E"></path>
                    <path d="M15.4482759,23.5082459 C15.9072479,23.3744942 16.3555472,23.2152661 16.7916042,23.0325038 C16.5985086,22.0501227 16.1207472,21.170822 15.4482759,20.4857571 L15.4482759,23.5082459 Z" id="Path" fill="#915729"></path>
                    <g id="Group" transform="translate(3.694153, 1.343328)" fill="#D5A150">
                        <path d="M2.73279059,21.6624186 C3.19029448,21.8529146 3.66059567,22.0187044 4.14218862,22.1580469 L4.14218862,19.0091698 C3.43668977,19.7228707 2.93543037,20.6388794 2.73279059,21.6624186 Z" id="Path"></path>
                        <polygon id="Path" points="5.53530771 16.889573 7.85068011 19.1990069 10.178991 16.8766788"></polygon>
                        <path d="M19.4645696,9.23321758 C19.4171913,7.9077461 18.3611779,6.81404154 17.0382558,6.72274655 C16.544242,6.68867564 16.0776106,6.79310016 15.6716723,6.99969037 C15.2479025,5.39614565 14.4130662,3.86718987 13.2984297,2.65282533 C11.8578853,1.08353976 9.95000378,0.0396709671 7.85712581,0.0396709671 C4.43003403,0.0396709671 1.49869691,2.83861534 0.304124344,6.16067059 C0.204756984,6.43695559 0.117340055,6.71681708 0.0427204369,6.99903154 L0.257122453,13.5791885 C0.474723798,14.466444 0.761487083,15.2191571 1.12084688,15.566831 C2.44452174,16.8475021 5.60291703,17.4572961 7.8712405,17.4572961 C10.139564,17.4572961 13.2696358,16.8475021 14.5933106,15.566831 C15.1905028,14.9890843 15.5874547,13.2934446 15.799175,11.7190296 C16.1219307,11.8618074 16.4786557,11.941667 16.8542004,11.941667 C18.3286671,11.941714 19.5177349,10.7198671 19.4645696,9.23321758 Z" id="Path"></path>
                    </g>
                    <path d="M15.4820746,6.91512342 C15.25936,6.69278174 14.9047762,6.65283755 14.6195849,6.81762524 C14.148657,7.08964661 13.6435739,7.29495117 13.1201429,7.43058007 C12.6282326,7.55804833 12.1201385,7.62404931 11.6083279,7.62404931 C10.5518686,7.62404931 9.51055805,7.34520354 8.59711784,6.81762524 C8.31173834,6.65288527 7.95715456,6.69287719 7.73472227,6.91493253 L7.7033898,6.94647747 L5.40854535,9.2744555 C5.26307991,9.42201516 5.09037497,9.52829439 4.90548519,9.59410448 C4.65294363,9.12522552 4.26481622,8.74220034 3.79454694,8.49952863 C3.7944999,8.49976725 3.79445285,8.50000587 3.79435876,8.50024448 C3.38844806,8.2907403 2.92184835,8.18484285 2.42786802,8.21939434 C1.10503573,8.31192933 0.0491410046,9.42101298 0.00171889256,10.7652758 C-0.0514898463,12.2727992 1.13749729,13.5118804 2.61181689,13.5118804 C2.98733603,13.5118804 3.34408392,13.4308467 3.6667707,13.2861027 C3.75112372,13.9219169 3.86488033,14.5770111 4.00888736,15.1724039 C5.56313767,16.0388636 8.02071336,16.4557721 9.88123148,16.4557721 C12.149401,16.4557721 15.2792604,15.8373769 16.6028454,14.5386418 C17.1630191,13.9890155 17.5470535,12.4417388 17.7672276,10.9342154 C17.9041307,9.99655294 17.5952284,9.04858231 16.932589,8.38022101 C16.2537189,7.69558616 15.4820746,6.91512342 15.4820746,6.91512342 Z" id="Path" fill="#E1B872"></path>
                    <circle id="Oval" fill="#C98A2E" cx="20.6536732" cy="10.9145427" r="1"></circle>
                    <circle id="Oval" fill="#D5A150" cx="2.51874063" cy="10.9145427" r="1"></circle>
                    <path d="M5.77116659,2.0149925 L5.77116659,3.52224224 L3.05257208,5.79222467 C2.80401324,6.36644441 2.68665667,6.98852766 2.68665667,7.61336222 L2.68665667,8.16002131 C3.11573125,8.16002131 3.52052843,8.26338561 3.87847781,8.44563693 L4.34226148,8.68096978 C4.52277722,8.77261724 4.74174798,8.73765649 4.88489928,8.5944929 C4.88489928,8.5944929 6.61964272,6.85902581 7.19793795,6.28048934 C7.21012407,6.26829814 7.22226277,6.25624925 7.23444888,6.24420036 C7.74602868,5.74042393 8.52949639,5.65494322 9.15335916,6.01024317 L11.7541229,2.0149925 L5.77116659,2.0149925 L5.77116659,2.0149925 Z" id="Path" fill="#6D5B4D"></path>
                    <path d="M5.50151567,2.0149925 L5.50151567,3.52384127 C4.00602681,3.92011945 3.22058097,4.8457816 2.8129932,5.7962319 C2.78345106,5.86532534 2.7558315,5.9350836 2.73008763,6.00545918 C2.584956,6.40259213 2.81693215,6.8446002 3.22681765,6.92841457 C3.33490437,6.95049598 3.44200636,6.97723111 3.54784225,7.00838251 C3.93662622,7.12301589 4.35612463,7.00971215 4.64240205,6.71980462 L6.03252395,5.31219793 C6.57028471,4.77621329 7.28497008,4.48231686 8.04743869,4.48231686 C8.57783737,4.48231686 9.1012022,4.62962123 9.55530712,4.90751457 C9.55657322,4.90722964 9.5572766,4.9070397 9.55854269,4.90675478 L11.4182909,2.0149925 L5.50151567,2.0149925 L5.50151567,2.0149925 Z" id="Path" fill="#827061"></path>
                    <path d="M16.4953209,1.08175808 C14.1610277,0.0688747448 9.67983095,-0.866603399 6.19250567,1.39700231 C4.65912257,2.39207016 5.74873181,3.54204292 5.74873181,3.54204292 L9.06046044,6.02066305 C9.81164451,6.45593731 10.6808061,6.7046452 11.6070761,6.7046452 C12.5333461,6.7046452 13.4025077,6.45593731 14.1536918,6.02061579 C14.7645657,5.66666897 15.5317216,5.75182413 16.0326502,6.25368198 C16.0446291,6.26568498 16.056515,6.27768799 16.0684474,6.28983276 C16.6346561,6.86611867 18.3333285,8.59502367 18.3333285,8.59502367 C18.4734993,8.73768929 18.6879111,8.77242238 18.8646685,8.68117121 L19.3177747,8.44720716 C19.6685037,8.26536639 20.065198,8.16220672 20.4857571,8.16220672 C20.4857571,7.5351207 20.4857571,7.02296106 20.4857571,6.94806043 C20.4857571,6.76579436 20.4575279,2.80144818 16.4953209,1.08175808 Z" id="Path" fill="#625143"></path>
                    <path d="M8.07482818,0.439822033 C7.43714842,0.662562867 6.8127594,0.96671226 6.21761921,1.36873705 C6.15567239,1.41058622 6.0985084,1.45272769 6.04497751,1.4949666 L9.97848577,4.61402034 C10.4681738,4.89132586 11.0201765,5.03748126 11.5807792,5.03748126 C12.1713205,5.03748126 12.7523421,4.87529748 13.2610695,4.56846857 C13.2921579,4.54971196 13.3234762,4.53153997 13.3550245,4.51390389 C14.1477323,4.07129661 14.3607061,2.96358481 13.7578858,2.26125938 C12.083758,0.310961686 9.79738214,0.170067878 8.07482818,0.439822033 Z" id="Path" fill="#827061"></path>
                    <g id="Group" transform="translate(7.388306, 9.739130)" fill="#474641">
                        <path d="M7.93832417,0.0367128776 L6.21196069,0.0367128776 C5.97361319,0.0367128776 5.78036982,0.243935564 5.78036982,0.499525216 C5.78036982,0.755114868 5.97361319,0.962337555 6.21196069,0.962337555 C6.21196069,1.47351686 6.59844744,1.88796223 7.07514243,1.88796223 C7.55183741,1.88796223 7.93832417,1.47351686 7.93832417,0.962337555 C8.17667166,0.962337555 8.36991504,0.755114868 8.36991504,0.499525216 C8.36991504,0.243935564 8.17667166,0.0367128776 7.93832417,0.0367128776 Z" id="Path"></path>
                        <path d="M2.18374813,0.0367128776 L0.457384641,0.0367128776 C0.219037148,0.0367128776 0.0257937698,0.243935564 0.0257937698,0.499525216 C0.0257937698,0.755114868 0.219037148,0.962337555 0.457384641,0.962337555 C0.457384641,1.47351686 0.843871398,1.88796223 1.32056638,1.88796223 C1.79726137,1.88796223 2.18374813,1.47351686 2.18374813,0.962337555 C2.42209562,0.962337555 2.615339,0.755114868 2.615339,0.499525216 C2.615339,0.243935564 2.42214226,0.0367128776 2.18374813,0.0367128776 Z" id="Path"></path>
                        <path d="M5.06103615,1.42519991 L3.33467266,1.42519991 C3.09632517,1.42519991 2.90308179,1.6324226 2.90308179,1.88801225 C2.90308179,2.1436019 3.09632517,2.35082459 3.33467266,2.35082459 L5.06103615,2.35082459 C5.29943028,2.35082459 5.49262702,2.1436019 5.49262702,1.88801225 C5.49262702,1.6324226 5.29947693,1.42519991 5.06103615,1.42519991 Z" id="Path"></path>
                    </g>
                    <g id="Group" transform="translate(7.388306, 8.059970)" fill="#625143">
                        <path d="M7.93832417,0.0363706147 L6.21196069,0.0363706147 C5.97356655,0.0363706147 5.78036982,0.245073463 5.78036982,0.502488756 C5.78036982,0.759904048 5.97356655,0.968606897 6.21196069,0.968606897 L7.93832417,0.968606897 C8.17671831,0.968606897 8.36991504,0.759904048 8.36991504,0.502488756 C8.36991504,0.245073463 8.17671831,0.0363706147 7.93832417,0.0363706147 Z" id="Path"></path>
                        <path d="M2.18374813,0.0363706147 L0.457384641,0.0363706147 C0.219037148,0.0363706147 0.0257937698,0.245073463 0.0257937698,0.502488756 C0.0257937698,0.759904048 0.219037148,0.968606897 0.457384641,0.968606897 L2.18374813,0.968606897 C2.42209562,0.968606897 2.615339,0.759904048 2.615339,0.502488756 C2.615339,0.245073463 2.42214226,0.0363706147 2.18374813,0.0363706147 Z" id="Path"></path>
                    </g>
                </g>
            </g>
        </g>
    </g>
</svg>