 ________  ________  ________  ___  ________   ________          ________  _______   ________  ________ _________        ________  ________  ___     
|\   ____\|\   __  \|\   __  \|\  \|\   ___  \|\   ____\        |\   __  \|\  ___ \ |\   __  \|\   ____\\___   ___\     |\   __  \|\   __  \|\  \    
\ \  \___|\ \  \|\  \ \  \|\  \ \  \ \  \\ \  \ \  \___|        \ \  \|\  \ \   __/|\ \  \|\  \ \  \___\|___ \  \_|     \ \  \|\  \ \  \|\  \ \  \   
 \ \_____  \ \   ____\ \   _  _\ \  \ \  \\ \  \ \  \  ___       \ \   _  _\ \  \_|/_\ \   __  \ \  \       \ \  \       \ \   __  \ \   ____\ \  \  
  \|____|\  \ \  \___|\ \  \\  \\ \  \ \  \\ \  \ \  \|\  \       \ \  \\  \\ \  \_|\ \ \  \ \  \ \  \____   \ \  \       \ \  \ \  \ \  \___|\ \  \ 
    ____\_\  \ \__\    \ \__\\ _\\ \__\ \__\\ \__\ \_______\       \ \__\\ _\\ \_______\ \__\ \__\ \_______\  \ \__\       \ \__\ \__\ \__\    \ \__\
   |\_________\|__|     \|__|\|__|\|__|\|__| \|__|\|_______|        \|__|\|__|\|_______|\|__|\|__|\|_______|   \|__|        \|__|\|__|\|__|     \|__|
   \|_________|                                                                                                                                      
Project Name: ${application.name} (Version: ${application.version}, Build Time: ${application.build-time}, Java Build Version: ${application.java-build-version})
Powered by Spring Boot: ${spring-boot.version}
