<?xml version="1.0" encoding="UTF-8"?>
<svg width="28px" height="28px" viewBox="0 0 28 28" version="1.1" xmlns="http://www.w3.org/2000/svg" xmlns:xlink="http://www.w3.org/1999/xlink">
    <!-- Generator: Sketch 63.1 (92452) - https://sketch.com -->
    <title>Group 2</title>
    <desc>Created with Sketch.</desc>
    <g id="Page-1" stroke="none" stroke-width="1" fill="none" fill-rule="evenodd">
        <g id="Desktop-HD" transform="translate(-1308.000000, -357.000000)">
            <g id="Group-2" transform="translate(1308.000000, 357.000000)">
                <g id="user-copy" fill="#F3F3F3">
                    <g id="Container-/-Radius-(999px)">
                        <rect x="0.777777778" y="0.777777778" width="26.4444444" height="26.4444444" rx="13.2222222"></rect>
                    </g>
                </g>
                <g id="man-2" transform="translate(2.000000, 2.000000)" fill-rule="nonzero">
                    <path d="M8.02262501,19.66272 C6.47642274,20.6035705 5.31380008,22.1534147 4.83704185,23.9963116 C6.79248303,25.1867116 9.06742838,25.8694737 11.4957474,25.8694737 L14.3691021,22.6369516 L11.4957474,19.66272 L8.02262501,19.66272 Z" id="Path" fill="#DBD9C7"></path>
                    <path d="M18.1544529,23.9963116 C17.7076224,22.26912 16.6583565,20.79936 15.2554873,19.8470905 L15.2554873,19.8470905 C15.2554388,19.8470905 15.2554388,19.84704 15.2553903,19.84704 C15.1614356,19.7832758 15.0659288,19.7217853 14.9688697,19.66272 L11.4957474,19.66272 L8.02262501,19.66272 C7.45967293,20.0052379 6.9479424,20.4288505 6.50130594,20.9175411 C8.05929499,21.5120337 9.92844531,21.8080674 11.4957474,21.8360084 L11.4957474,25.8694737 C13.9240179,25.8694737 16.1990117,25.1867116 18.1544529,23.9963116 Z" id="Path" fill="#B8B7AC"></path>
                    <path d="M15.1736589,22.0914189 L15.1736589,25.3286905 C15.6498836,25.1851958 16.1149521,25.0144168 16.5674092,24.8183242 C16.3657728,23.7665684 15.8701945,22.8253137 15.1736589,22.0914189 Z" id="Path" fill="#A4A49E"></path>
                    <g id="Group" transform="translate(6.402695, 22.080000)" fill="#B8B7AC">
                        <path d="M0.0213423158,2.73827368 C0.473799411,2.93436632 0.938867874,3.10509474 1.41509255,3.24864 L1.41509255,0.0113684211 C0.718556968,0.745313684 0.2230272,1.68656842 0.0213423158,2.73827368 Z" id="Path"></path>
                        <ellipse id="Oval" cx="3.35486653" cy="0.656185263" rx="1" ry="1"></ellipse>
                        <ellipse id="Oval" cx="3.36922408" cy="2.45204211" rx="1" ry="1"></ellipse>
                    </g>
                    <g id="Group" transform="translate(12.756884, 22.282105)" fill="#A4A49E">
                        <circle id="Oval" cx="0.497381053" cy="0.45408" r="1"></circle>
                        <circle id="Oval" cx="0.482425263" cy="2.24993684" r="1"></circle>
                    </g>
                    <g id="Group" transform="translate(3.734905, 2.526316)" fill="#E1B872">
                        <polygon id="Path" points="5.46212918 17.3796884 7.75443941 19.7608926 10.0595065 17.3664"></polygon>
                        <path d="M16.6683001,6.89057684 C16.2467894,6.89057684 15.8491432,6.99627789 15.4975286,7.18272 C15.0779581,5.52939789 14.2514769,3.95292632 13.1479336,2.70083368 L13.1479336,2.70083368 C11.7217334,1.08277895 9.83284143,0.00646736842 7.76084211,0.00646736842 C4.08550131,0.00646736842 0.985917979,3.39274105 0.0241556211,7.18272 L0.236657179,13.9665347 C0.452117558,14.8813642 0.735970358,15.6574484 1.09175646,16.0159326 C2.40217465,17.3363874 5.52916345,17.9650863 7.77486013,17.9650863 C10.0205568,17.9650863 13.1194611,17.3363368 14.4299277,16.0159326 C15.0211584,15.4202274 15.4141965,13.6719158 15.6237393,12.0486568 C15.9432435,12.19584 16.2964588,12.2782484 16.6682516,12.2782484 C18.0964891,12.2782484 19.2543097,11.0721853 19.2543097,9.58443789 C19.2543097,8.09669053 18.0965376,6.89057684 16.6683001,6.89057684 Z" id="Path"></path>
                    </g>
                    <path d="M17.1769748,10.0711579 C16.3686346,7.99664842 15.1313139,6.85404632 13.6929873,6.85404632 C12.9353836,6.85404632 12.349149,7.17640421 12.0530728,7.47809684 C11.5621511,7.97840842 11.2779102,8.69608421 11.2779102,10.8834695 L11.2779102,10.8834695 C11.2779102,11.2002189 11.1176973,11.4935242 10.856351,11.6553095 L10.856351,11.6553095 C10.8000849,11.6901726 9.4583808,12.5082442 7.69050947,12.5083453 C7.69041246,12.5083453 7.69007293,12.5083453 7.68992741,12.5083453 C7.66776051,12.5083453 7.64554509,12.5082442 7.62342669,12.5079916 C6.45925187,12.4950063 5.41085912,11.8173474 4.82913549,10.7668042 C4.57904236,10.3150989 4.20666745,9.94615579 3.75896387,9.70888421 C3.35709777,9.49591579 2.89513364,9.38819368 2.40600657,9.42336 C1.09626745,9.51744 0.0508335158,10.6450863 0.00388042105,12.0117726 C-0.0487477895,13.5445389 1.12852345,14.8044126 2.58819234,14.8044126 C2.95998518,14.8044126 3.31320051,14.7220547 3.63270467,14.5748211 C3.71618223,15.2212547 3.82885996,15.8872926 3.97141693,16.4926989 C5.51029491,17.3736253 7.94351293,17.79744 9.78564581,17.79744 C12.0313425,17.79744 15.1302467,17.1686905 16.4407134,15.8482863 C16.9511828,15.3339284 17.3139537,13.96032 17.538339,12.5498779 C17.6689152,11.7294821 17.5360593,10.8946358 17.2046228,10.1381053 C17.1950673,10.1162779 17.1858998,10.0938442 17.1769748,10.0711579 Z" id="Path" fill="#ECCE93"></path>
                    <ellipse id="Oval" fill="#D5A150" cx="20.4034479" cy="12.1106526" rx="1" ry="1"></ellipse>
                    <ellipse id="Oval" fill="#E1B872" cx="2.58848337" cy="12.1106526" rx="1" ry="1"></ellipse>
                    <g id="Group" transform="translate(7.712337, 8.943158)" fill="#474641">
                        <path d="M5.85778661,1.05559579 C5.67608589,1.05559579 5.50714206,0.934989474 5.44796564,0.745212632 C5.37443166,0.509406316 5.49831411,0.256117895 5.72468817,0.17952 C6.33522392,-0.0271326316 6.97990737,-0.0271326316 7.58898796,0.179469474 C7.81536202,0.256218947 7.93909895,0.509608421 7.86541945,0.745364211 C7.79173996,0.981170526 7.54858307,1.11016421 7.32216051,1.03331368 C6.88740783,0.885928421 6.42714139,0.885978947 5.99103057,1.03356632 C5.94684227,1.04847158 5.9019264,1.05559579 5.85778661,1.05559579 Z" id="Path"></path>
                        <ellipse id="Oval" cx="0.910249768" cy="3.16749474" rx="1" ry="1"></ellipse>
                        <ellipse id="Oval" cx="6.65700783" cy="3.16749474" rx="1" ry="1"></ellipse>
                        <path d="M3.78341053,5.41232842 C3.07043166,5.41232842 2.49040573,4.80813474 2.49040573,4.06544842 C2.49040573,3.81751579 2.68335966,3.61647158 2.92142349,3.61647158 C3.15943882,3.61647158 3.35244126,3.81746526 3.35244126,4.06544842 C3.35244126,4.31302737 3.54578324,4.51442526 3.78345903,4.51442526 C4.02113482,4.51442526 4.2144768,4.31302737 4.2144768,4.06544842 C4.2144768,3.81751579 4.40743074,3.61647158 4.64549457,3.61647158 C4.88350989,3.61647158 5.07651234,3.81746526 5.07651234,4.06544842 C5.07641533,4.80813474 4.49638939,5.41232842 3.78341053,5.41232842 Z" id="Path"></path>
                    </g>
                    <path d="M20.3819116,3.92695579 C21.2456448,5.13615158 20.0509117,8.08794947 19.2325794,9.70903579 C18.8055875,9.94307368 18.2205656,10.3621389 17.9757595,9.73359158 C16.1615171,5.07754105 12.71808,5.54445474 11.4503464,6.83626105 C10.7319835,7.56838737 10.4159232,8.54890105 10.4159232,10.88352 C10.4159232,10.88352 7.07187335,12.9547453 4.21117844,10.1053137 C4.16694164,10.0610021 4.12440253,10.0161347 4.08186341,9.97061053 C4.01866105,9.90234947 3.88590215,9.77007158 3.75891537,9.70903579 C2.94058307,8.08794947 1.74584994,5.13620211 2.60958316,3.92695579 C3.95545869,2.04368842 6.19557726,0.630972632 8.87583259,0.0640673684 C9.07693541,0.0215747368 9.28381036,0 9.49010324,0 C10.2538671,0 10.9572419,0.286736842 11.4957474,0.754863158 C12.0342043,0.286736842 12.7376276,0 13.501343,0 C13.7076359,0 13.9145108,0.0215747368 14.1156621,0.0640673684 C16.795966,0.630922105 19.036036,2.04368842 20.3819116,3.92695579 Z" id="Path" fill="#978574"></path>
                    <path d="M19.3671815,4.86356211 C19.3616034,4.80176842 19.3530664,4.75710316 19.3436079,4.72956632 C19.0151303,3.76805053 18.7259419,2.68517053 17.8571641,1.57045895 C16.7694336,0.876985263 15.501603,0.357221053 14.1156621,0.0640673684 C13.9145593,0.0215747368 13.7076359,0 13.501343,0 C12.7376276,0 12.0342043,0.286736842 11.4957474,0.754863158 L10.5543087,5.86514526 C10.5515439,5.86787368 10.5488276,5.87070316 10.5461113,5.87348211 C10.8187594,5.59573895 11.1412224,5.35826526 11.4956989,5.16565895 C12.151393,4.80939789 12.9182127,4.60931368 13.6929873,4.60931368 C14.3902504,4.60931368 15.7802173,4.79034947 17.1170708,6.02632421 C18.0296003,6.86976 19.4813629,6.12884211 19.3671815,4.86356211 Z" id="Path" fill="#B0A18D"></path>
                    <path d="M11.4957474,3.58650947 L11.4957474,0.754863158 C10.9572419,0.286736842 10.2538671,0 9.49010324,0 C9.28381036,0 9.07693541,0.0215747368 8.87578408,0.0640673684 C6.19548025,0.630972632 3.95541019,2.04368842 2.60953465,3.92695579 C2.42409903,4.18656 2.33402476,4.52695579 2.31428312,4.91681684 C2.88378341,6.86157474 4.75923941,8.79077053 4.75923941,8.79077053 C4.84402661,8.86322526 4.92794072,8.94421895 5.00967208,9.03248842 C5.04081246,9.06578526 5.07331099,9.10024421 5.105664,9.13268211 C5.85875672,9.88279579 6.7286016,10.2636632 7.69002442,10.2636632 L7.69036396,10.2636632 C7.7377536,10.2636632 7.78470669,10.2627537 7.83127175,10.2610358 C7.85047983,10.2603284 7.86925137,10.2588632 7.88831394,10.2578526 C7.91542838,10.2564379 7.94273684,10.2553263 7.96956025,10.2533558 C7.99192118,10.2517389 8.01374855,10.2493642 8.03586695,10.2473937 C8.05885844,10.2453726 8.08209246,10.2436042 8.10484143,10.2411789 C8.12773592,10.2387032 8.15004834,10.2356211 8.17270029,10.2327916 C8.19413962,10.2301642 8.21586998,10.22784 8.23706678,10.2248084 C8.25598383,10.2221811 8.27431882,10.2189979 8.29304185,10.2161179 C8.31734299,10.2124295 8.34188665,10.2088926 8.36584825,10.2048 C8.3837952,10.2017684 8.40120859,10.1981305 8.41891301,10.1949474 C8.44297162,10.1905011 8.46732126,10.1862568 8.49094333,10.1814568 C8.51092749,10.1774653 8.53023259,10.1729684 8.54992573,10.1687242 C8.57068598,10.1642274 8.59168876,10.1599832 8.61206097,10.1553347 C8.63122055,10.1508884 8.64970105,10.1461389 8.66847259,10.1414905 C8.68865078,10.1365895 8.70912,10.1317895 8.72886164,10.1266863 C8.97051486,10.0640842 9.1450368,9.84540632 9.16274122,9.58661053 C9.16652463,9.53133474 9.17055057,9.47671579 9.17491604,9.42275368 C9.17491604,9.42255158 9.17496455,9.4224 9.17496455,9.42219789 C9.18801246,9.26056421 9.20358265,9.10494316 9.22191764,8.95488 C9.22230568,8.95159579 9.22279074,8.94841263 9.22317878,8.94517895 C9.2289024,8.89849263 9.23486855,8.85221053 9.24112573,8.80658526 C9.24238686,8.79754105 9.24379352,8.78874947 9.24505465,8.77970526 C9.257472,8.69138526 9.27066543,8.60478316 9.28516851,8.52040421 C9.28560505,8.51782737 9.28609011,8.51535158 9.28652665,8.51282526 C9.29404497,8.46886737 9.30185432,8.42541474 9.30995469,8.38251789 C9.31014872,8.38160842 9.31029423,8.3808 9.31048825,8.37989053 C9.31887966,8.33547789 9.32761061,8.29157053 9.33663259,8.24821895 C9.33968842,8.23366737 9.34293827,8.21946947 9.34604261,8.20506947 C9.35234829,8.17556211 9.35860547,8.14600421 9.3652992,8.11695158 C9.36743343,8.10765474 9.36971318,8.09861053 9.37189592,8.08941474 C9.37975377,8.05566316 9.38766013,8.02201263 9.39595453,7.98891789 C9.39789474,7.98103579 9.40002897,7.97340632 9.40206619,7.96557474 C9.41074863,7.93146947 9.41947958,7.89746526 9.42859857,7.86396632 C9.43175141,7.85234526 9.43514678,7.84107789 9.43834813,7.82960842 C9.44654552,7.80025263 9.45474291,7.77089684 9.46323133,7.74204632 C9.46594762,7.73295158 9.46880943,7.72410947 9.47157423,7.71506526 C9.48088724,7.68409263 9.49024876,7.65327158 9.49999832,7.62285474 C9.50058038,7.62103579 9.50121095,7.61931789 9.50179301,7.6176 C9.51382232,7.58026105 9.52614265,7.54327579 9.53880253,7.50674526 C9.54287697,7.49507368 9.54719394,7.48370526 9.55126838,7.47208421 C9.56062989,7.44570947 9.56999141,7.41918316 9.57969246,7.39316211 C9.58255427,7.38548211 9.58565861,7.37800421 9.58852042,7.37037474 C9.59977364,7.34081684 9.61102686,7.31120842 9.62276514,7.28220632 C9.62320168,7.28114526 9.62368674,7.28003368 9.62412328,7.27892211 C9.63843234,7.24355368 9.65303242,7.20848842 9.66802055,7.17387789 C9.67054282,7.16796632 9.67330762,7.16225684 9.6758784,7.15634526 C9.68887781,7.12673684 9.70197423,7.09712842 9.71545869,7.06802526 C9.72622686,7.04483368 9.73743158,7.02209684 9.74844227,6.99925895 C9.75402038,6.98768842 9.75940446,6.97596632 9.76512808,6.96454737 C9.7763328,6.94191158 9.78802257,6.91973053 9.79956682,6.89744842 C9.80548446,6.88608 9.81111107,6.87450947 9.81707722,6.86319158 C9.82498358,6.84823579 9.83332648,6.83358316 9.84137836,6.81872842 C9.85132194,6.80048842 9.86116851,6.78204632 9.87130611,6.76400842 C9.87436194,6.75860211 9.87756328,6.75339789 9.88061912,6.74804211 C9.91476682,6.68832 9.95003015,6.62950737 9.98679714,6.57200842 C9.98718518,6.57140211 9.98762173,6.57079579 9.98800977,6.57018947 C10.0076544,6.53946947 10.0276871,6.50905263 10.0480593,6.47904 C10.0583909,6.46378105 10.0692076,6.44877474 10.0797817,6.43361684 C10.0904529,6.41835789 10.10093,6.40289684 10.1117952,6.38773895 C10.1660241,6.31220211 10.2231633,6.23868632 10.2825822,6.16653474 C10.3038275,6.14071579 10.3254609,6.11509895 10.3473853,6.08968421 C10.3803203,6.05148632 10.413983,6.01374316 10.4485187,5.97635368 C10.4804837,5.94179368 10.5128367,5.90743579 10.5461113,5.87353263 C10.5488276,5.87080421 10.5515924,5.86797474 10.5543087,5.86519579 C11.1477706,5.26438737 11.4957474,4.44853895 11.4957474,3.58650947 Z" id="Path" fill="#C8BDA5"></path>
                </g>
            </g>
        </g>
    </g>
</svg>