 ,----.             ,--.                                       ,---.                         ,--.
'  .-./    ,--,--.,-'  '-. ,---. ,--.   ,--. ,--,--.,--. ,--. '   .-' ,---. ,--.--.,--.  ,--.`--' ,---. ,---.
|  | .---.' ,-.  |'-.  .-'| .-. :|  |.'.|  |' ,-.  | \  '  /  `.  `-.| .-. :|  .--' \  `'  / ,--.| .--'| .-. :
'  '--'  |\ '-'  |  |  |  \   --.|   .'.   |\ '-'  |  \   '   .-'    \   --.|  |     \    /  |  |\ `--.\   --.
 `------'  `--`--'  `--'   `----''--'   '--' `--`--'.-'  /    `-----' `----'`--'      `--'   `--' `---' `----'
                                                    `---'
Project Name: ${application.name} (Version: ${application.version}, Build Time: ${application.build-time})
Powered by Spring Boot ${spring-boot.version}