 ________  ________  ___  _____ ______   _______   ________ ________  ________  _______   ________           ________  ___      ___ ________  ___       ________  ________      
|\   __  \|\   __  \|\  \|\   _ \  _   \|\  ___ \ |\  _____\\   __  \|\   ____\|\  ___ \ |\   ____\         |\   __  \|\  \    /  /|\   __  \|\  \     |\   __  \|\   ___  \    
\ \  \|\  \ \  \|\  \ \  \ \  \\\__\ \  \ \   __/|\ \  \__/\ \  \|\  \ \  \___|\ \   __/|\ \  \___|_        \ \  \|\  \ \  \  /  / | \  \|\  \ \  \    \ \  \|\  \ \  \\ \  \   
 \ \   ____\ \   _  _\ \  \ \  \\|__| \  \ \  \_|/_\ \   __\\ \   __  \ \  \    \ \  \_|/_\ \_____  \        \ \   __  \ \  \/  / / \ \   __  \ \  \    \ \  \\\  \ \  \\ \  \  
  \ \  \___|\ \  \\  \\ \  \ \  \    \ \  \ \  \_|\ \ \  \_| \ \  \ \  \ \  \____\ \  \_|\ \|____|\  \        \ \  \ \  \ \    / /   \ \  \ \  \ \  \____\ \  \\\  \ \  \\ \  \ 
   \ \__\    \ \__\\ _\\ \__\ \__\    \ \__\ \_______\ \__\   \ \__\ \__\ \_______\ \_______\____\_\  \        \ \__\ \__\ \__/ /     \ \__\ \__\ \_______\ \_______\ \__\\ \__\
    \|__|     \|__|\|__|\|__|\|__|     \|__|\|_______|\|__|    \|__|\|__|\|_______|\|_______|\_________\        \|__|\|__|\|__|/       \|__|\|__|\|_______|\|_______|\|__| \|__|
                                                                                            \|_________|                                                                        
Project Name: ${application.name} (Version: ${application.version}, Build Time: ${application.build-time}, Java Build Version: ${application.java-build-version})
Powered by Spring Boot: ${spring-boot.version}
