C1001,Supot,Saelao,501 Moo 10 Chiang Mail,35000,2020-08-20
C1002,Somkid,Saelao,501 Moo 10 Chiang Mail,35000,2019-10-10
C1003,สมศรี,รักษาใจ,501 Moo 10 Chiang Mail,35000,2020-08-20
C1004,Sutira,Saelao,501 Moo 10 Chiang Mail,35000,2020-08-20
C1005,Panita,Saelao,501 Moo 10 Chiang Mail,35000,2019-10-20